\relax 
\citation{LULESH}
\citation{adamsd}
\@writefile{toc}{\contentsline {section}{\numberline {1}Introduction}{\thepage }}
\citation{Gimenez:2014:DOM:2683593.2683612}
\citation{childs2013visit}
\citation{Rutar20122}
\citation{Gimenez:2014:DOM:2683593.2683612}
\citation{6047189}
\@writefile{lof}{\contentsline {figure}{\numberline {1}{\ignorespaces  MemAxes application window upon loading the memory access data. (A) is the source code view, which visualizes the source files (not utilized for VisIt integration), (B) is the memory topology view, which shows accesses mapped onto a hardware layout, consisting of Sunburst and Icicle plots (Sunburst shown in the figure), (C), is the parallel coordinate view, depicting all attributes of the data as a high dimensional visualization. All these views have capabilities for interactive linking and brushing. }}{\thepage }}
\@writefile{toc}{\contentsline {section}{\numberline {2}Related Works}{\thepage }}
\citation{bohme2014characterizing}
\citation{Huck:2014:LPD:2688457.2688467}
\citation{tau}
\citation{MPAS}
\citation{Gimenez:2014:DOM:2683593.2683612}
\citation{Gimenez:2014:DOM:2683593.2683612}
\citation{GimenezGRBJBH14}
\citation{childs2013visit}
\@writefile{toc}{\contentsline {section}{\numberline {3}MemAxes}{\thepage }}
\@writefile{toc}{\contentsline {subsection}{\numberline {3.1}MemAxes Data}{\thepage }}
\@writefile{lof}{\contentsline {figure}{\numberline {2}{\ignorespaces Memory topology, represented by the Icicle view and Sunburst view, which shows accesses mapped onto a hardware layout.}}{\thepage }}
\newlabel{SB_IC}{{2}{\thepage }}
\@writefile{toc}{\contentsline {subsection}{\numberline {3.2}MemAxes Views}{\thepage }}
\@writefile{toc}{\contentsline {section}{\numberline {4}VisIt}{\thepage }}
\@writefile{toc}{\contentsline {section}{\numberline {5}Integration API}{\thepage }}
\@writefile{toc}{\contentsline {subsection}{\numberline {5.1}MemAxes modifications}{\thepage }}
\@writefile{lof}{\contentsline {figure}{\numberline {3}{\ignorespaces Control flow diagram representing the Integration API.}}{\thepage }}
\newlabel{flowdiag}{{3}{\thepage }}
\@writefile{toc}{\contentsline {subsection}{\numberline {5.2}VisIt API}{\thepage }}
\citation{LULESH}
\@writefile{lof}{\contentsline {figure}{\numberline {4}{\ignorespaces Hydrocube mesh of LULESH displayed in VisIt representing the \textit  {speed} variable.}}{\thepage }}
\newlabel{visit1}{{4}{\thepage }}
\@writefile{lof}{\contentsline {figure}{\numberline {5}{\ignorespaces MemAxes Data field: CPU number selected from the parallel coordinate view used to restrict the latencies between CPU 0 to CPU 10. Latencies are projected over the LULESH shock hydrocube.}}{\thepage }}
\newlabel{visit2}{{5}{\thepage }}
\@writefile{toc}{\contentsline {section}{\numberline {6}Applications}{\thepage }}
\@writefile{toc}{\contentsline {subsection}{\numberline {6.1}LULESH}{\thepage }}
\@writefile{toc}{\contentsline {subsubsection}{\numberline {6.1.1}Application View}{\thepage }}
\@writefile{toc}{\contentsline {subsubsection}{\numberline {6.1.2}Case Study}{\thepage }}
\citation{adamsd}
\citation{CONDUIT}
\@writefile{lof}{\contentsline {figure}{\numberline {6}{\ignorespaces AMRGogunov example visual data file using Chombo library, representing a mesh with three domains of varying granularity. }}{\thepage }}
\newlabel{diffuse}{{6}{\thepage }}
\@writefile{toc}{\contentsline {subsection}{\numberline {6.2}Chombo}{\thepage }}
\@writefile{toc}{\contentsline {subsubsection}{\numberline {6.2.1}Case Study}{\thepage }}
\@writefile{toc}{\contentsline {section}{\numberline {7}Discussion and Future Work}{\thepage }}
\bibstyle{unsrt}
\bibdata{sigproc}
\bibcite{LULESH}{{1}{}{{}}{{}}}
\bibcite{adamsd}{{2}{}{{}}{{}}}
\bibcite{Gimenez:2014:DOM:2683593.2683612}{{3}{}{{}}{{}}}
\bibcite{childs2013visit}{{4}{}{{}}{{}}}
\bibcite{Rutar20122}{{5}{}{{}}{{}}}
\bibcite{6047189}{{6}{}{{}}{{}}}
\bibcite{bohme2014characterizing}{{7}{}{{}}{{}}}
\bibcite{Huck:2014:LPD:2688457.2688467}{{8}{}{{}}{{}}}
\bibcite{tau}{{9}{}{{}}{{}}}
\@writefile{lof}{\contentsline {figure}{\numberline {7}{\ignorespaces Latency data represented over an AMR mesh consisting of three domains.}}{\thepage }}
\newlabel{chomboLat1}{{7}{\thepage }}
\@writefile{lof}{\contentsline {figure}{\numberline {8}{\ignorespaces Defining a new variable: Latency per sample for the AMR mesh.}}{\thepage }}
\newlabel{chomboLat2}{{8}{\thepage }}
\@writefile{toc}{\contentsline {section}{\numberline {8}Conclusion}{\thepage }}
\@writefile{toc}{\contentsline {section}{\numberline {9}Acknowledgement}{\thepage }}
\bibcite{MPAS}{{10}{}{{}}{{}}}
\bibcite{CONDUIT}{{11}{}{{}}{{}}}
\providecommand\NAT@force@numbers{}\NAT@force@numbers
